{
    "id": "org.kde.atelier",
    "branch": "master",
    "runtime": "org.kde.Platform",
    "runtime-version": "5.14",
    "sdk": "org.kde.Sdk",
    "command": "atelier",
    "tags": ["nightly"],
    "desktop-file-name-suffix": " (Nightly)",
    "finish-args": ["--share=ipc", "--socket=x11", "--share=network", "--socket=wayland", "--filesystem=host", "--device=all" ],
    "modules": [
        {
            "name": "atcore",
            "config-opts": ["-DBUILD_GUI=OFF"],
            "buildsystem": "cmake-ninja",
            "cleanup": [
                "/mkspecs",
                "/include",
                "/*/cmake"
            ],
            "sources": [ 
                { "type": "git", "url": "git://anongit.kde.org/atcore.git" } 
            ]
        },
        {
            "name": "atelier",
            "buildsystem": "cmake-ninja",
            "sources": [
                { "type": "git", "url": "git://anongit.kde.org/atelier.git" }
            ]
        }
    ]
}
