{
  "id": "org.kde.KStyle.Adwaita",
  "branch": "master",
  "runtime": "org.kde.Platform",
  "build-extension": true,
  "sdk": "org.kde.Sdk",
  "runtime-version": "5.14",
  "appstream-compose": false,
  "separate-locales": false,
  "modules": [
        {
            "name": "adwaita-qt",
            "cmake": true,
            "config-opts": ["-DQT_PLUGINS_DIR=/usr/share/runtime/lib/plugins/Adwaita"],
            "sources": [
                {
                    "type": "git",
                    "url": "https://github.com/MartinBriza/adwaita-qt.git"
                }
            ]
        },
        {
            "name": "appdata",
            "buildsystem": "simple",
            "build-commands": [
                "mkdir -p ${FLATPAK_DEST}/share/appdata",
                "cp org.kde.KStyle.Adwaita.appdata.xml ${FLATPAK_DEST}/share/appdata",
                "appstream-compose --basename=org.kde.KStyle.Adwaita --prefix=${FLATPAK_DEST} --origin=flatpak org.kde.KStyle.Adwaita"
            ],
            "sources": [
                {
                    "type": "file",
                    "path": "org.kde.KStyle.Adwaita.appdata.xml"
                }
            ]
        }
    ]
}
