{
    "id": "org.kde.kdevelop",
    "branch": "master",
    "runtime": "org.kde.Platform",
    "runtime-version": "5.14",
    "sdk": "org.kde.Sdk",
    "command": "kdevelop",
    "tags": ["nightly"],
    "desktop-file-name-suffix": " (Nightly)",
    "finish-args": ["--share=ipc", "--socket=cups", "--socket=x11", "--socket=wayland", "--filesystem=host", "--allow=devel" ],

    "modules": [
        "boost.json",
        {
            "name": "grantlee",
            "config-opts": [ "-DENABLE_TESTING=OFF" ],
            "buildsystem": "cmake-ninja",
            "sources": [ { "type": "git", "url": "https://github.com/steveire/grantlee.git" } ]
        },
        {
            "name": "libkomparediff2",
            "config-opts": [ "-DENABLE_TESTING=OFF" ],
            "buildsystem": "cmake-ninja",
            "sources": [ { "type": "git", "url": "git://anongit.kde.org/libkomparediff2.git" } ]
        },
        {
            "name": "kdevelop",
            "buildsystem": "cmake-ninja",
            "sources": [ { "type": "git", "url": "git://anongit.kde.org/kdevelop.git", "branch": "master" } ]
        }
    ]
}
