{
    "id": "org.kde.kruler",
    "branch": "master",
    "runtime": "org.kde.Platform",
    "runtime-version": "5.14",
    "sdk": "org.kde.Sdk",
    "command": "kruler",
    "tags": ["nightly"],
    "desktop-file-name-suffix": " (Nightly)",
    "finish-args": ["--share=ipc", "--socket=x11", "--socket=wayland" ],

    "modules": [
        {
            "name": "kruler",
            "buildsystem": "cmake-ninja",
            "sources": [
                { "type": "git", "url": "git://anongit.kde.org/kruler.git" }
            ]
        }
    ]
}
