{
    "id": "org.kde.kompare",
    "branch": "master",
    "runtime": "org.kde.Platform",
    "runtime-version": "5.14",
    "sdk": "org.kde.Sdk",
    "command": "kompare",
    "tags": ["nightly"],
    "desktop-file-name-suffix": " (Nightly)",
    "finish-args": ["--share=ipc", "--socket=x11", "--socket=wayland" ],

    "modules": [
        {
            "name": "libkomparediff2",
            "config-opts": [ "-DENABLE_TESTING=OFF" ],
            "buildsystem": "cmake-ninja",
            "sources": [ { "type": "git", "url": "https://invent.kde.org/sdk/libkomparediff2.git" } ]
        },
        {
            "name": "kompare",
            "buildsystem": "cmake-ninja",
            "builddir": true,
            "sources": [ { "type": "git", "url": "https://invent.kde.org/sdk/kompare.git" } ]
        }
    ]
}
